<svg width="24" height="24" viewBox="0 0 24 24" fill="none" xmlns="http://www.w3.org/2000/svg">
<path d="M6 11C6 7.68629 8.68629 5 12 5C15.3137 5 18 7.68629 18 11V17C18 18.1046 17.1046 19 16 19H8C6.89543 19 6 18.1046 6 17V11Z" stroke="#832161" stroke-width="2"/>
<path d="M10 9L14 13" stroke="#832161" stroke-width="2" stroke-linecap="round"/>
<path d="M14 9L10 13" stroke="#832161" stroke-width="2" stroke-linecap="round"/>
</svg>
