<svg width="25" height="23" viewBox="0 0 25 23" fill="none" xmlns="http://www.w3.org/2000/svg">
<path d="M11.9629 13.6973H9.76602V11.2561C9.76602 10.4469 9.11011 9.79102 8.30098 9.79102C7.49185 9.79102 6.83594 10.4469 6.83594 11.2561V12.6265C6.83594 13.3814 6.35112 14.0379 5.62954 14.2599L4.39453 14.6399V22.2422C4.39453 22.2616 4.39355 22.2807 4.39307 22.3C4.82505 22.7319 5.41094 22.9746 6.02183 22.9746H11.9629C13.1764 22.9746 14.1602 21.9909 14.1602 20.7773V15.8945C14.1602 14.681 13.1764 13.6973 11.9629 13.6973Z" fill="url(#paint0_linear)"/>
<path d="M2.19727 22.9746H0.732422C0.32793 22.9746 0 22.6467 0 22.2422V14.4297C0 14.0252 0.32793 13.6973 0.732422 13.6973H2.19727C2.60176 13.6973 2.92969 14.0252 2.92969 14.4297V22.2422C2.92969 22.6467 2.60176 22.9746 2.19727 22.9746Z" fill="url(#paint1_linear)"/>
<path d="M13.0371 9.30273H15.234V11.7439C15.234 12.5531 15.8899 13.209 16.699 13.209C17.5082 13.209 18.1641 12.5531 18.1641 11.7439V10.3735C18.1641 9.61855 18.6489 8.96211 19.3705 8.74009L20.6055 8.36006V0.757812C20.6055 0.738428 20.6064 0.719287 20.6069 0.700049C20.175 0.268066 19.5891 0.0253906 18.9782 0.0253906H13.0371C11.8236 0.0253906 10.8398 1.00913 10.8398 2.22266V7.10547C10.8398 8.31899 11.8236 9.30273 13.0371 9.30273Z" fill="url(#paint2_linear)"/>
<path d="M22.8027 0.0253906H24.2676C24.6721 0.0253906 25 0.35332 25 0.757812V8.57031C25 8.9748 24.6721 9.30273 24.2676 9.30273H22.8027C22.3982 9.30273 22.0703 8.9748 22.0703 8.57031V0.757812C22.0703 0.35332 22.3982 0.0253906 22.8027 0.0253906Z" fill="url(#paint3_linear)"/>
<defs>
<linearGradient id="paint0_linear" x1="9.27661" y1="9.79102" x2="9.27661" y2="22.9746" gradientUnits="userSpaceOnUse">
<stop stop-color="#832161"/>
<stop offset="1" stop-color="#DA4167"/>
</linearGradient>
<linearGradient id="paint1_linear" x1="1.46484" y1="13.6973" x2="1.46484" y2="22.9746" gradientUnits="userSpaceOnUse">
<stop stop-color="#832161"/>
<stop offset="1" stop-color="#DA4167"/>
</linearGradient>
<linearGradient id="paint2_linear" x1="15.7234" y1="0.0253906" x2="15.7234" y2="13.209" gradientUnits="userSpaceOnUse">
<stop stop-color="#832161"/>
<stop offset="1" stop-color="#DA4167"/>
</linearGradient>
<linearGradient id="paint3_linear" x1="23.5352" y1="0.0253906" x2="23.5352" y2="9.30273" gradientUnits="userSpaceOnUse">
<stop stop-color="#832161"/>
<stop offset="1" stop-color="#DA4167"/>
</linearGradient>
</defs>
</svg>
