<svg width="24" height="24" viewBox="0 0 24 24" fill="none" xmlns="http://www.w3.org/2000/svg">
<path d="M16 9C15.4477 9 15 8.55229 15 8V6C15 5.44772 14.5523 5 14 5L10 5C9.44772 5 9 5.44772 9 6V8C9 8.55229 8.55228 9 8 9H6C5.44772 9 5 9.44772 5 10V14C5 14.5523 5.44772 15 6 15H8C8.55228 15 9 15.4477 9 16V18C9 18.5523 9.44771 19 10 19H14C14.5523 19 15 18.5523 15 18V16C15 15.4477 15.4477 15 16 15H18C18.5523 15 19 14.5523 19 14V10C19 9.44772 18.5523 9 18 9H16Z" stroke="#832161" stroke-width="2"/>
</svg>
