<svg width="300" height="250" viewBox="0 0 300 250" fill="none" xmlns="http://www.w3.org/2000/svg">
<rect width="300" height="250" fill="white"/>
<path fill-rule="evenodd" clip-rule="evenodd" d="M150.536 124.616C162.178 124.616 171.616 115.179 171.616 103.537C171.616 91.8953 162.178 82.4578 150.536 82.4578C138.895 82.4578 129.457 91.8953 129.457 103.537C129.457 115.179 138.895 124.616 150.536 124.616ZM150.536 131.102C165.76 131.102 178.101 118.761 178.101 103.537C178.101 88.3132 165.76 75.9719 150.536 75.9719C135.313 75.9719 122.971 88.3132 122.971 103.537C122.971 118.761 135.313 131.102 150.536 131.102Z" fill="#DA4167"/>
<path fill-rule="evenodd" clip-rule="evenodd" d="M141.082 63C139.291 63 137.839 64.4519 137.839 66.2429C137.839 68.034 139.291 69.4859 141.082 69.4859H146.757V76.2288C147.993 76.0593 149.255 75.9718 150.537 75.9718C151.45 75.9718 152.353 76.0162 153.243 76.1029V69.4859H158.918C160.709 69.4859 162.161 68.034 162.161 66.2429C162.161 64.4519 160.709 63 158.918 63H141.082ZM172.46 86.8249C173.769 88.5389 174.881 90.4109 175.763 92.4073L181.11 89.3198L183.948 94.2347C184.844 95.7857 186.827 96.3172 188.378 95.4217C189.929 94.5261 190.46 92.5428 189.565 90.9917L180.647 75.5451C179.751 73.994 177.768 73.4626 176.217 74.3581C174.666 75.2536 174.134 77.237 175.03 78.7881L177.867 83.7029L172.46 86.8249ZM175.763 114.666C174.881 116.663 173.769 118.535 172.46 120.249L177.868 123.371L175.03 128.286C174.134 129.837 174.666 131.82 176.217 132.716C177.768 133.611 179.751 133.08 180.647 131.529L189.565 116.082C190.46 114.531 189.929 112.547 188.378 111.652C186.827 110.756 184.844 111.288 183.948 112.839L181.11 117.754L175.763 114.666ZM153.243 130.971C152.353 131.057 151.45 131.102 150.537 131.102C149.255 131.102 147.993 131.014 146.757 130.845V137.588H141.082C139.291 137.588 137.839 139.04 137.839 140.831C137.839 142.622 139.291 144.074 141.082 144.074H158.918C160.709 144.074 162.161 142.622 162.161 140.831C162.161 139.04 160.709 137.588 158.918 137.588H153.243V130.971ZM128.29 119.816C127.016 118.077 125.94 116.184 125.097 114.17L118.89 117.754L116.052 112.839C115.156 111.288 113.173 110.756 111.622 111.652C110.071 112.547 109.539 114.531 110.435 116.082L119.353 131.529C120.249 133.08 122.232 133.611 123.783 132.716C125.334 131.82 125.866 129.837 124.97 128.286L122.132 123.371L128.29 119.816ZM125.097 92.9039C125.94 90.8893 127.016 88.9962 128.29 87.2578L122.132 83.7029L124.97 78.7881C125.866 77.237 125.334 75.2536 123.783 74.3581C122.232 73.4626 120.249 73.994 119.353 75.5451L110.435 90.9917C109.54 92.5428 110.071 94.5261 111.622 95.4217C113.173 96.3172 115.156 95.7857 116.052 94.2347L118.89 89.3198L125.097 92.9039Z" fill="#832161"/>
<path d="M90.774 173.718C90.774 172.494 91.05 171.396 91.602 170.424C92.154 169.44 92.904 168.672 93.852 168.12C94.812 167.568 95.874 167.292 97.038 167.292C98.406 167.292 99.6 167.622 100.62 168.282C101.64 168.942 102.384 169.878 102.852 171.09H100.89C100.542 170.334 100.038 169.752 99.378 169.344C98.73 168.936 97.95 168.732 97.038 168.732C96.162 168.732 95.376 168.936 94.68 169.344C93.984 169.752 93.438 170.334 93.042 171.09C92.646 171.834 92.448 172.71 92.448 173.718C92.448 174.714 92.646 175.59 93.042 176.346C93.438 177.09 93.984 177.666 94.68 178.074C95.376 178.482 96.162 178.686 97.038 178.686C97.95 178.686 98.73 178.488 99.378 178.092C100.038 177.684 100.542 177.102 100.89 176.346H102.852C102.384 177.546 101.64 178.476 100.62 179.136C99.6 179.784 98.406 180.108 97.038 180.108C95.874 180.108 94.812 179.838 93.852 179.298C92.904 178.746 92.154 177.984 91.602 177.012C91.05 176.04 90.774 174.942 90.774 173.718ZM109.592 180.162C108.668 180.162 107.828 179.952 107.072 179.532C106.328 179.112 105.74 178.518 105.308 177.75C104.888 176.97 104.678 176.07 104.678 175.05C104.678 174.042 104.894 173.154 105.326 172.386C105.77 171.606 106.37 171.012 107.126 170.604C107.882 170.184 108.728 169.974 109.664 169.974C110.6 169.974 111.446 170.184 112.202 170.604C112.958 171.012 113.552 171.6 113.984 172.368C114.428 173.136 114.65 174.03 114.65 175.05C114.65 176.07 114.422 176.97 113.966 177.75C113.522 178.518 112.916 179.112 112.148 179.532C111.38 179.952 110.528 180.162 109.592 180.162ZM109.592 178.722C110.18 178.722 110.732 178.584 111.248 178.308C111.764 178.032 112.178 177.618 112.49 177.066C112.814 176.514 112.976 175.842 112.976 175.05C112.976 174.258 112.82 173.586 112.508 173.034C112.196 172.482 111.788 172.074 111.284 171.81C110.78 171.534 110.234 171.396 109.646 171.396C109.046 171.396 108.494 171.534 107.99 171.81C107.498 172.074 107.102 172.482 106.802 173.034C106.502 173.586 106.352 174.258 106.352 175.05C106.352 175.854 106.496 176.532 106.784 177.084C107.084 177.636 107.48 178.05 107.972 178.326C108.464 178.59 109.004 178.722 109.592 178.722ZM118.442 171.738C118.73 171.174 119.138 170.736 119.666 170.424C120.206 170.112 120.86 169.956 121.628 169.956V171.648H121.196C119.36 171.648 118.442 172.644 118.442 174.636V180H116.804V170.136H118.442V171.738ZM127.821 180.162C126.897 180.162 126.057 179.952 125.301 179.532C124.557 179.112 123.969 178.518 123.537 177.75C123.117 176.97 122.907 176.07 122.907 175.05C122.907 174.042 123.123 173.154 123.555 172.386C123.999 171.606 124.599 171.012 125.355 170.604C126.111 170.184 126.957 169.974 127.893 169.974C128.829 169.974 129.675 170.184 130.431 170.604C131.187 171.012 131.781 171.6 132.213 172.368C132.657 173.136 132.879 174.03 132.879 175.05C132.879 176.07 132.651 176.97 132.195 177.75C131.751 178.518 131.145 179.112 130.377 179.532C129.609 179.952 128.757 180.162 127.821 180.162ZM127.821 178.722C128.409 178.722 128.961 178.584 129.477 178.308C129.993 178.032 130.407 177.618 130.719 177.066C131.043 176.514 131.205 175.842 131.205 175.05C131.205 174.258 131.049 173.586 130.737 173.034C130.425 172.482 130.017 172.074 129.513 171.81C129.009 171.534 128.463 171.396 127.875 171.396C127.275 171.396 126.723 171.534 126.219 171.81C125.727 172.074 125.331 172.482 125.031 173.034C124.731 173.586 124.581 174.258 124.581 175.05C124.581 175.854 124.725 176.532 125.013 177.084C125.313 177.636 125.709 178.05 126.201 178.326C126.693 178.59 127.233 178.722 127.821 178.722ZM139.838 169.956C141.038 169.956 142.01 170.322 142.754 171.054C143.498 171.774 143.87 172.818 143.87 174.186V180H142.25V174.42C142.25 173.436 142.004 172.686 141.512 172.17C141.02 171.642 140.348 171.378 139.496 171.378C138.632 171.378 137.942 171.648 137.426 172.188C136.922 172.728 136.67 173.514 136.67 174.546V180H135.032V170.136H136.67V171.54C136.994 171.036 137.432 170.646 137.984 170.37C138.548 170.094 139.166 169.956 139.838 169.956ZM145.934 175.032C145.934 174.024 146.138 173.142 146.546 172.386C146.954 171.618 147.512 171.024 148.22 170.604C148.94 170.184 149.738 169.974 150.614 169.974C151.478 169.974 152.228 170.16 152.864 170.532C153.5 170.904 153.974 171.372 154.286 171.936V170.136H155.942V180H154.286V178.164C153.962 178.74 153.476 179.22 152.828 179.604C152.192 179.976 151.448 180.162 150.596 180.162C149.72 180.162 148.928 179.946 148.22 179.514C147.512 179.082 146.954 178.476 146.546 177.696C146.138 176.916 145.934 176.028 145.934 175.032ZM154.286 175.05C154.286 174.306 154.136 173.658 153.836 173.106C153.536 172.554 153.128 172.134 152.612 171.846C152.108 171.546 151.55 171.396 150.938 171.396C150.326 171.396 149.768 171.54 149.264 171.828C148.76 172.116 148.358 172.536 148.058 173.088C147.758 173.64 147.608 174.288 147.608 175.032C147.608 175.788 147.758 176.448 148.058 177.012C148.358 177.564 148.76 177.99 149.264 178.29C149.768 178.578 150.326 178.722 150.938 178.722C151.55 178.722 152.108 178.578 152.612 178.29C153.128 177.99 153.536 177.564 153.836 177.012C154.136 176.448 154.286 175.794 154.286 175.05ZM173.373 180H171.735L165.147 170.01V180H163.509V167.436H165.147L171.735 177.408V167.436H173.373V180ZM185.165 174.69C185.165 175.002 185.147 175.332 185.111 175.68H177.227C177.287 176.652 177.617 177.414 178.217 177.966C178.829 178.506 179.567 178.776 180.431 178.776C181.139 178.776 181.727 178.614 182.195 178.29C182.675 177.954 183.011 177.51 183.203 176.958H184.967C184.703 177.906 184.175 178.68 183.383 179.28C182.591 179.868 181.607 180.162 180.431 180.162C179.495 180.162 178.655 179.952 177.911 179.532C177.179 179.112 176.603 178.518 176.183 177.75C175.763 176.97 175.553 176.07 175.553 175.05C175.553 174.03 175.757 173.136 176.165 172.368C176.573 171.6 177.143 171.012 177.875 170.604C178.619 170.184 179.471 169.974 180.431 169.974C181.367 169.974 182.195 170.178 182.915 170.586C183.635 170.994 184.187 171.558 184.571 172.278C184.967 172.986 185.165 173.79 185.165 174.69ZM183.473 174.348C183.473 173.724 183.335 173.19 183.059 172.746C182.783 172.29 182.405 171.948 181.925 171.72C181.457 171.48 180.935 171.36 180.359 171.36C179.531 171.36 178.823 171.624 178.235 172.152C177.659 172.68 177.329 173.412 177.245 174.348H183.473ZM200.467 170.136L197.389 180H195.697L193.321 172.17L190.945 180H189.253L186.157 170.136H187.831L190.099 178.416L192.547 170.136H194.221L196.615 178.434L198.847 170.136H200.467ZM205.585 180.162C204.829 180.162 204.151 180.036 203.551 179.784C202.951 179.52 202.477 179.16 202.129 178.704C201.781 178.236 201.589 177.702 201.553 177.102H203.245C203.293 177.594 203.521 177.996 203.929 178.308C204.349 178.62 204.895 178.776 205.567 178.776C206.191 178.776 206.683 178.638 207.043 178.362C207.403 178.086 207.583 177.738 207.583 177.318C207.583 176.886 207.391 176.568 207.007 176.364C206.623 176.148 206.029 175.938 205.225 175.734C204.493 175.542 203.893 175.35 203.425 175.158C202.969 174.954 202.573 174.66 202.237 174.276C201.913 173.88 201.751 173.364 201.751 172.728C201.751 172.224 201.901 171.762 202.201 171.342C202.501 170.922 202.927 170.592 203.479 170.352C204.031 170.1 204.661 169.974 205.369 169.974C206.461 169.974 207.343 170.25 208.015 170.802C208.687 171.354 209.047 172.11 209.095 173.07H207.457C207.421 172.554 207.211 172.14 206.827 171.828C206.455 171.516 205.951 171.36 205.315 171.36C204.727 171.36 204.259 171.486 203.911 171.738C203.563 171.99 203.389 172.32 203.389 172.728C203.389 173.052 203.491 173.322 203.695 173.538C203.911 173.742 204.175 173.91 204.487 174.042C204.811 174.162 205.255 174.3 205.819 174.456C206.527 174.648 207.103 174.84 207.547 175.032C207.991 175.212 208.369 175.488 208.681 175.86C209.005 176.232 209.173 176.718 209.185 177.318C209.185 177.858 209.035 178.344 208.735 178.776C208.435 179.208 208.009 179.55 207.457 179.802C206.917 180.042 206.293 180.162 205.585 180.162Z" fill="black"/>
</svg>
