<svg width="30" height="30" viewBox="0 0 30 30" fill="none" xmlns="http://www.w3.org/2000/svg">
<rect width="30" height="30" fill="#DA4167"/>
<path fill-rule="evenodd" clip-rule="evenodd" d="M15.5644 21.9684C15.1969 21.8525 14.8031 21.8525 14.4356 21.9684L14.3229 22.0039C13.9553 22.1199 13.5615 22.1199 13.194 22.0039L12.8438 21.8935C12.6298 21.826 12.4017 21.8176 12.1833 21.8693C11.4708 22.0378 10.7672 21.5576 10.657 20.8275L9.37183 12.3152C9.32884 12.0304 9.41468 11.7595 9.58215 11.5581C9.60986 11.5247 9.6398 11.4933 9.67177 11.464C9.8386 11.3111 10.0605 11.2168 10.307 11.2168H19.693C19.9395 11.2168 20.1614 11.3111 20.3282 11.464C20.3602 11.4933 20.3901 11.5247 20.4179 11.5581C20.5853 11.7595 20.6712 12.0304 20.6282 12.3152L19.343 20.8275C19.2328 21.5576 18.5292 22.0378 17.8167 21.8693C17.5983 21.8176 17.3702 21.826 17.1562 21.8935L16.806 22.0039C16.4385 22.1199 16.0447 22.1199 15.6771 22.0039L15.5644 21.9684ZM15.1127 23.8261L15 23.7906L14.8873 23.8261C14.1523 24.058 13.3646 24.058 12.6296 23.8261L12.4358 23.765C10.7115 24.0694 9.05383 22.885 8.78662 21.1151L7.50149 12.6027C7.40357 11.9541 7.52845 11.3295 7.81414 10.8018C7.01151 10.0113 6.71963 8.7318 7.31745 7.60043C7.7811 6.72296 8.68632 6.17484 9.67177 6.17484H12.3116C12.8964 5.43783 13.786 5 14.7357 5H15.307C16.2514 5 17.134 5.43917 17.7093 6.17484H20.3282C21.3137 6.17484 22.2189 6.72296 22.6825 7.60043C23.2804 8.7318 22.9885 10.0114 22.1859 10.8019C22.4715 11.3295 22.5964 11.9541 22.4985 12.6027L21.2134 21.1151C20.9462 22.885 19.2885 24.0694 17.5642 23.765L17.3704 23.8261C16.6354 24.058 15.8477 24.058 15.1127 23.8261ZM17.7206 23.7157C17.7209 23.7156 17.7203 23.7158 17.7206 23.7157ZM20.7625 9.51743C21.0734 9.30473 21.2113 8.87371 21.0131 8.49866C20.8782 8.2434 20.6149 8.08395 20.3282 8.08395H17.3284C17.0158 8.08395 16.7209 7.95789 16.5048 7.74128C16.433 7.66927 16.3699 7.58725 16.3177 7.49653C16.1087 7.13291 15.7236 6.90911 15.307 6.90911H14.7357C14.3124 6.90911 13.9196 7.13172 13.6993 7.49653C13.6445 7.58734 13.5789 7.66934 13.5049 7.74128C13.2816 7.95837 12.9809 8.08395 12.6629 8.08395H9.67177C9.38509 8.08395 9.12176 8.2434 8.98688 8.49866C8.7887 8.87371 8.92661 9.30473 9.23747 9.51743C9.35904 9.6006 9.50706 9.65039 9.67177 9.65039H20.3282C20.4929 9.65039 20.641 9.6006 20.7625 9.51743Z" fill="white"/>
</svg>
